%YAML 1.1
%TAG !u! tag:unity3d.com,2011:
--- !u!1001 &7175204416405592268
PrefabInstance:
  m_ObjectHideFlags: 0
  serializedVersion: 2
  m_Modification:
    m_TransformParent: {fileID: 0}
    m_Modifications:
    - target: {fileID: 4964914743259109014, guid: 108f57c386c4e5348bddbcb1a4a8541c,
        type: 3}
      propertyPath: m_Name
      value: Explosion_violeta
      objectReference: {fileID: 0}
    - target: {fileID: 5531115284330011030, guid: 108f57c386c4e5348bddbcb1a4a8541c,
        type: 3}
      propertyPath: InitialModule.startColor.maxColor.r
      value: 0.9811321
      objectReference: {fileID: 0}
    - target: {fileID: 5531115284330011030, guid: 108f57c386c4e5348bddbcb1a4a8541c,
        type: 3}
      propertyPath: InitialModule.startColor.maxColor.g
      value: 0.45817015
      objectReference: {fileID: 0}
    - target: {fileID: 5531115284330011030, guid: 108f57c386c4e5348bddbcb1a4a8541c,
        type: 3}
      propertyPath: InitialModule.startColor.maxColor.b
      value: 0.9144198
      objectReference: {fileID: 0}
    - target: {fileID: 7228154241036686393, guid: 108f57c386c4e5348bddbcb1a4a8541c,
        type: 3}
      propertyPath: m_LocalPosition.x
      value: 27.3
      objectReference: {fileID: 0}
    - target: {fileID: 7228154241036686393, guid: 108f57c386c4e5348bddbcb1a4a8541c,
        type: 3}
      propertyPath: m_LocalPosition.y
      value: 7.58
      objectReference: {fileID: 0}
    - target: {fileID: 7228154241036686393, guid: 108f57c386c4e5348bddbcb1a4a8541c,
        type: 3}
      propertyPath: m_LocalPosition.z
      value: -3
      objectReference: {fileID: 0}
    - target: {fileID: 7228154241036686393, guid: 108f57c386c4e5348bddbcb1a4a8541c,
        type: 3}
      propertyPath: m_LocalRotation.x
      value: -0.7071068
      objectReference: {fileID: 0}
    - target: {fileID: 7228154241036686393, guid: 108f57c386c4e5348bddbcb1a4a8541c,
        type: 3}
      propertyPath: m_LocalRotation.y
      value: 0
      objectReference: {fileID: 0}
    - target: {fileID: 7228154241036686393, guid: 108f57c386c4e5348bddbcb1a4a8541c,
        type: 3}
      propertyPath: m_LocalRotation.z
      value: 0
      objectReference: {fileID: 0}
    - target: {fileID: 7228154241036686393, guid: 108f57c386c4e5348bddbcb1a4a8541c,
        type: 3}
      propertyPath: m_LocalRotation.w
      value: 0.7071068
      objectReference: {fileID: 0}
    - target: {fileID: 7228154241036686393, guid: 108f57c386c4e5348bddbcb1a4a8541c,
        type: 3}
      propertyPath: m_RootOrder
      value: 0
      objectReference: {fileID: 0}
    - target: {fileID: 7228154241036686393, guid: 108f57c386c4e5348bddbcb1a4a8541c,
        type: 3}
      propertyPath: m_LocalEulerAnglesHint.x
      value: -90
      objectReference: {fileID: 0}
    - target: {fileID: 7228154241036686393, guid: 108f57c386c4e5348bddbcb1a4a8541c,
        type: 3}
      propertyPath: m_LocalEulerAnglesHint.y
      value: 0
      objectReference: {fileID: 0}
    - target: {fileID: 7228154241036686393, guid: 108f57c386c4e5348bddbcb1a4a8541c,
        type: 3}
      propertyPath: m_LocalEulerAnglesHint.z
      value: 0
      objectReference: {fileID: 0}
    m_RemovedComponents: []
  m_SourcePrefab: {fileID: 100100000, guid: 108f57c386c4e5348bddbcb1a4a8541c, type: 3}
